the,0.060258
.,0.042496
of,0.031357
and,0.024848
to,0.022527
a,0.019975
in,0.018375
that,0.009123
is,0.008706
was,0.008453
he,0.008223
for,0.008172
``,0.00761
'',0.007569
it,0.007544
with,0.006277
as,0.006246
his,0.006025
on,0.005805
be,0.005492
;,0.004793
at,0.004626
by,0.004569
i,0.004447
this,0.004431
had,0.00442
?,0.004042
not,0.00397
are,0.003784
but,0.003773
from,0.003763
or,0.003622
have,0.003395
an,0.003221
they,0.003117
which,0.003067
--,0.002956
one,0.002835
you,0.00283
were,0.002828
her,0.002615
all,0.002584
she,0.002463
there,0.002349
would,0.002337
their,0.002299
we,0.002284
him,0.002255
been,0.002129
),0.002124
has,0.002099
(,0.002097
when,0.002007
who,0.001939
will,0.001933
more,0.001908
if,0.001893
no,0.001842
out,0.001806
so,0.001709
said,0.001689
what,0.001643
up,0.001628
its,0.0016
about,0.001563
:,0.001546
into,0.001542
than,0.001542
them,0.00154
can,0.001526
only,0.001505
other,0.001466
new,0.001408
some,0.001393
could,0.001379
time,0.001376
!,0.001374
these,0.001355
two,0.001216
may,0.001207
then,0.001188
do,0.001174
first,0.001172
any,0.001157
my,0.001135
now,0.001132
such,0.001122
like,0.001113
our,0.001078
over,0.001064
man,0.001039
me,0.001017
even,0.001008
most,0.000998
made,0.000969
after,0.000921
also,0.000921
did,0.000899
many,0.000887
before,0.000875
must,0.000872
af,0.000858
through,0.000836
back,0.000832
years,0.000818
much,0.000807
your,0.000795
way,0.000782
well,0.000772
down,0.000771
should,0.000765
because,0.00076
each,0.000755
just,0.000751
those,0.000732
people,0.000729
mr.,0.000727
how,0.000718
too,0.000718
little,0.000716
state,0.000695
good,0.000694
very,0.000686
make,0.000684
world,0.000678
still,0.000673
own,0.000665
see,0.000665
men,0.000657
work,0.000656
long,0.000648
here,0.000646
get,0.000645
between,0.000629
both,0.000629
life,0.000616
being,0.000613
under,0.000609
never,0.0006
day,0.000592
same,0.000591
another,0.000589
know,0.000588
while,0.000586
last,0.000582
us,0.000581
might,0.000579
great,0.000573
old,0.000569
year,0.000567
off,0.00055
come,0.000543
since,0.000541
against,0.00054
go,0.000539
came,0.000536
right,0.000528
used,0.000526
take,0.000525
three,0.000525
himself,0.000519
states,0.000519
few,0.000518
house,0.000509
use,0.000509
during,0.000504
without,0.000502
again,0.000497
place,0.000491
american,0.00049
around,0.000484
however,0.000475
small,0.000467
found,0.000462
mrs.,0.00046
1,0.000454
thought,0.000445
went,0.000437
say,0.000434
part,0.000431
once,0.00043
general,0.000429
high,0.000428
upon,0.000426
school,0.000425
every,0.000423
don't,0.000421
does,0.000418
got,0.000415
united,0.000415
left,0.000413
number,0.000406
course,0.0004
war,0.0004
until,0.000397
always,0.000394
away,0.000393
carlynton,1
centrastate,1
hollywood,1
rica,1
berna,1
daniels,1
greenfield,1
conex,1
christina's,1
reba,1
janet,1
bryce,1
michelle,1
payton,1
owen,1
walters,1
enrica,1
myrtle,1
wheeler,1
lynch,1
schneider,1
nguyen,1
alexander,1
angelo,1
clark,1
suzulacki's,1
catherine's,1
azassa,1
emilio,1
towanda,1
kretchman,1
mia,1
bristol,1
ruby,1
erica,1
pete,1
sam's,1
o'brien,1
jacobs,1
kristie,1
karen,1
lilian,1
lula,1
millie,1
todd,1
ryerson,1
william's,1
mable,1
anita,1
zachery,1
jessica,1
mccottle,1
melanie,1
marion,1
simpson,1
gillian,1
harrison,1
meyers,1
eric's,1
herbert,1
margaret,1
gordon,1
nichols,1
daphney,1
zachary,1
rita,1
tiana,1
salamani,1
jacob's,1
schaffer,1
logan,1
foley,1
zoe,1
cody,1
phyllis,1
gloria's,1
rodriguez,1
jerry,1
albert,1
haney,1
adrian,1
ariana,1
tommy's,1
jerry's,1
margot,1
garnett,1
katz,1
farber,1
murray,1
murphy,1
caroline,1
charlene,1
mendoza,1
victoria's,1
aubrey,1
tara,1
gomaz,1
nelson,1
janice,1
clay,1
logan's,1
kristen,1
goddman,1
warren,1
darren,1
embrey,1
cullen,1
beverly,1
ethan,1
sophia,1
rick,1
leslie,1
cassandra,1
peter,1
raymond,1
olga,1
naida,1
stan,1
nicki,1
allison's,1
naomi,1
tracey,1
jenny,1
dara,1
dyson's,1
edward,1
roger's,1
danny,1
josephs,1
allina,1
charlie,1
peggy,1
troy's,1
anne,1
shawn,1
nickie,1
mcnulty,1
gibbs,1
victoria,1
stacy,1
veronica,1
beth,1
joanie,1
olaughlin,1
patricia,1
felicia,1
chambers,1
gerald,1
dana,1
christen,1
hilda,1
marty,1
hutchinson,1
vicky,1
huffman,1
bet,1
patterson,1
darby,1
mathew,1
dominique,1
drew,1
joseph,1
mendelson,1
mueller,1
crystal's,1
avery,1
cunningham,1
griffin,1
lauren,1
robins,1
simon,1
hartman,1
theresa,1
blake,1
charlie's,1
becky,1
judy,1
cooper,1
evan,1
devin,1
hitchcock,1
phil,1
selena,1
culver,1
paul's,1
myers,1
emily,1
irina,1
thompson,1
norman,1
gilberg,1
erin's,1
josephine,1
chikowski,1
hailey,1
fran,1
markita's,1
richard,1
silvia,1
fernando,1
jeffrey,1
steve,1
stedman,1
timothy,1
jordan,1
hyberger,1
gahler,1
louise,1
minardi,1
cumberland,1
